{
  "$schema": "./node_modules/@openapitools/openapi-generator-cli/config.schema.json",
  "spaces": 2,
  "generator-cli": {
    "version": "7.0.1"
  },
  "supportsES6": true,
  "withSeparateModelsAndApi": true,
  "apiPackage": "api",
  "modelPackage": "models",
  "enumPropertyNaming": "original",
  "enumNameSuffix": "",
  "useSingleRequestParameter": false,
  "enumUnknownDefaultCase": true
}
